{
	"data":[{
		"ID" : "1",
		"providerID" : "1",
		"providerImg" : "fbThumbnail.png",
		"text":"Una Promo",
		"promoURL":"http://www.google.com"	
		},{
		"ID" : "2",
		"providerID" : "2",
		"providerImg" : "fbThumbnail.png",
		"text":"Una Promo Más",
		"promoURL":"http://www.google.com"	
		},{
		"ID" : "3",
		"providerID" : "3",
		"providerImg" : "fbThumbnail.png",
		"text":"Una Promo Más 2",
		"promoURL":"http://www.google.com"	
		},{
		"ID" : "4",
		"providerID" : "4",
		"providerImg" : "fbThumbnail.png",
		"text":"Una Promo Más 3",
		"promoURL":"http://www.google.com"	
		}
	]
		
}